23:38:02.736: CPU Name: Intel(R) Core(TM) i7-8550U CPU @ 1.80GHz
23:38:02.736: CPU Speed: 2000.000MHz
23:38:02.756: Physical Cores: 4, Logical Cores: 8
23:38:02.756: Physical Memory: 15876MB Total, 6986MB Free
23:38:02.756: Kernel Version: Linux 5.13.0-51-generic
23:38:02.756: Distribution: "Ubuntu" "20.10"
23:38:02.756: Session Type: x11
23:38:02.757: Window System: X11.0, Vendor: The X.Org Foundation, Version: 1.20.13
23:38:02.758: Portable mode: false
23:38:02.818: OBS 26.1.1 (linux)
23:38:02.818: ---------------------------------
23:38:02.818: ---------------------------------
23:38:02.818: audio settings reset:
23:38:02.818: 	samples per sec: 48000
23:38:02.818: 	speakers:        2
23:38:02.828: ---------------------------------
23:38:02.828: Initializing OpenGL...
23:38:02.886: Loading up OpenGL on adapter Intel Mesa Intel(R) UHD Graphics 620 (KBL GT2)
23:38:02.886: OpenGL loaded successfully, version 4.6 (Core Profile) Mesa 21.2.6, shading language 4.60
23:38:02.903: ---------------------------------
23:38:02.903: video settings reset:
23:38:02.903: 	base resolution:   1920x1080
23:38:02.903: 	output resolution: 1280x720
23:38:02.903: 	downscale filter:  Bicubic
23:38:02.903: 	fps:               30/1
23:38:02.903: 	format:            NV12
23:38:02.903: 	YUV mode:          709/Partial
23:38:02.903: NV12 texture support not available
23:38:02.908: Audio monitoring device:
23:38:02.908: 	name: Default
23:38:02.908: 	id: default
23:38:02.908: ---------------------------------
23:38:02.910: Failed to load 'en-US' text for module: 'decklink-captions.so'
23:38:02.912: Failed to load 'en-US' text for module: 'decklink-ouput-ui.so'
23:38:03.062: A DeckLink iterator could not be created.  The DeckLink drivers may not be installed
23:38:03.062: No blackmagic support
23:38:03.072: v4l2loopback not installed, virtual camera disabled
23:38:03.075: [obs-browser]: Version 2.9.1
23:38:03.075: [obs-browser]: CEF Version 76.1.13+gf19c584+chromium-76.0.3809.132
23:38:03.139: os_dlopen(libnvidia-encode.so.1->libnvidia-encode.so.1): libnvidia-encode.so.1: cannot open shared object file: No such file or directory
23:38:03.139: 
23:38:03.139: FFMPEG VAAPI supported
23:38:03.171: os_dlopen(libvlc.so.5->libvlc.so.5): libvlc.so.5: cannot open shared object file: No such file or directory
23:38:03.171: 
23:38:03.171: Couldn't find VLC installation, VLC video source disabled
23:38:03.171: ---------------------------------
23:38:03.171:   Loaded Modules:
23:38:03.171:     vlc-video.so
23:38:03.171:     text-freetype2.so
23:38:03.171:     rtmp-services.so
23:38:03.171:     obs-x264.so
23:38:03.171:     obs-vst.so
23:38:03.171:     obs-transitions.so
23:38:03.171:     obs-outputs.so
23:38:03.171:     obs-libfdk.so
23:38:03.171:     obs-filters.so
23:38:03.171:     obs-ffmpeg.so
23:38:03.171:     obs-browser.so
23:38:03.171:     linux-v4l2.so
23:38:03.171:     linux-pulseaudio.so
23:38:03.171:     linux-jack.so
23:38:03.171:     linux-decklink.so
23:38:03.171:     linux-capture.so
23:38:03.171:     linux-alsa.so
23:38:03.171:     image-source.so
23:38:03.171:     frontend-tools.so
23:38:03.171:     decklink-ouput-ui.so
23:38:03.171:     decklink-captions.so
23:38:03.171: ---------------------------------
23:38:03.171: os_dlopen(../obs-plugins/obs-browser->../obs-plugins/obs-browser.so): ../obs-plugins/obs-browser.so: cannot open shared object file: No such file or directory
23:38:03.171: 
23:38:03.172: ==== Startup complete ===============================================
23:38:03.178: All scene data cleared
23:38:03.178: ------------------------------------------------
23:38:03.191: pulse-input: Server name: 'pulseaudio 13.99.2'
23:38:03.192: pulse-input: Audio format: s16le, 44100 Hz, 2 channels
23:38:03.192: pulse-input: Started recording from 'alsa_output.pci-0000_00_1f.3.analog-stereo.monitor'
23:38:03.192: [Loaded global audio device]: 'Desktop Audio'
23:38:03.193: pulse-input: Server name: 'pulseaudio 13.99.2'
23:38:03.193: pulse-input: Audio format: s16le, 44100 Hz, 2 channels
23:38:03.193: pulse-input: Started recording from 'alsa_output.pci-0000_00_1f.3.analog-stereo.monitor'
23:38:03.193: [Loaded global audio device]: 'Desktop Audio 2'
23:38:03.194: pulse-input: Server name: 'pulseaudio 13.99.2'
23:38:03.194: pulse-input: Audio format: s16le, 44100 Hz, 2 channels
23:38:03.195: pulse-input: Started recording from 'alsa_input.pci-0000_00_1f.3.analog-stereo'
23:38:03.195: [Loaded global audio device]: 'Mic/Aux'
23:38:03.195: v4l2-input: Start capture from /dev/video0
23:38:03.197: v4l2-input: Unable to set input 0
23:38:03.198: v4l2-input: Initialization failed
23:38:03.198: v4l2-input: Start capture from /dev/video1
23:38:03.199: v4l2-input: Unable to set input 0
23:38:03.199: v4l2-input: Initialization failed
23:38:03.219: xcompcap: XCompositeNameWindowPixmap failed: BadMatch (invalid parameter attributes)
23:38:03.221: xcompcap: XCompositeNameWindowPixmap failed: BadMatch (invalid parameter attributes)
23:38:03.224: pulse-input: Server name: 'pulseaudio 13.99.2'
23:38:03.224: pulse-input: Audio format: s16le, 44100 Hz, 2 channels
23:38:03.224: pulse-input: Started recording from 'PulseEffects_apps.monitor'
23:38:03.226: xcompcap: XCompositeNameWindowPixmap failed: BadMatch (invalid parameter attributes)
23:38:03.228: xshm-input: Geometry 1920x1080 @ 0,0
23:38:03.234: xcompcap: XCompositeNameWindowPixmap failed: BadMatch (invalid parameter attributes)
23:38:03.235: Switched to scene 'stream opsource + a movie'
23:38:03.235: ------------------------------------------------
23:38:03.235: Loaded scenes:
23:38:03.235: - scene 'Scene':
23:38:03.235:     - source: 'vim screen' (xcomposite_input)
23:38:03.235:     - source: 'Audio Output Capture (PulseAudio)' (pulse_output_capture)
23:38:03.235:     - filter: 'Image Mask/Blend' (mask_filter)
23:38:03.235:     - filter: 'Chroma Key' (chroma_key_filter)
23:38:03.235: - scene 'stream opsource + a movie':
23:38:03.235:     - source: 'Audio Output Capture (PulseAudio)' (pulse_output_capture)
23:38:03.235:     - source: 'code' (xcomposite_input)
23:38:03.235:         - filter: 'Chroma Key' (chroma_key_filter)
23:38:03.235:     - source: 'Screen Capture (XSHM)' (xshm_input)
23:38:03.235:     - source: 'Video Capture Device (V4L2)' (v4l2_input)
23:38:03.235:         - filter: 'Color Correction' (color_filter)
23:38:03.235:     - source: 'movie' (xcomposite_input)
23:38:03.235:     - source: 'reader' (xcomposite_input)
23:38:03.235:     - source: 'Video Capture Device (V4L2) 2' (v4l2_input)
23:38:03.235: - scene 'cam':
23:38:03.235: ------------------------------------------------
23:38:03.770: adding 42 milliseconds of audio buffering, total audio buffering is now 42 milliseconds (source: Desktop Audio 2)
23:38:03.770: 
23:42:40.295: ---------------------------------
23:42:40.295: [x264 encoder: 'simple_h264_stream'] preset: veryfast
23:42:40.297: [x264 encoder: 'simple_h264_stream'] settings:
23:42:40.297: 	rate_control: CBR
23:42:40.297: 	bitrate:      2500
23:42:40.297: 	buffer size:  2500
23:42:40.297: 	crf:          0
23:42:40.297: 	fps_num:      30
23:42:40.297: 	fps_den:      1
23:42:40.297: 	width:        1280
23:42:40.297: 	height:       720
23:42:40.297: 	keyint:       60
23:42:40.297: 
23:42:40.297: [x264 encoder: 'simple_h264_stream'] custom settings: 
23:42:40.297: 	scenecut = 0
23:42:40.316: libfdk_aac encoder created
23:42:40.316: libfdk_aac bitrate: 160, channels: 2
23:42:40.351: ==== Recording Start ===============================================
23:42:40.351: [ffmpeg muxer: 'simple_file_output'] Writing file '/home/eleven/2022-12-09 23-42-40.mp4'...
23:49:08.051: [ffmpeg muxer: 'simple_file_output'] Output of file '/home/eleven/2022-12-09 23-42-40.mp4' stopped
23:49:08.051: Output 'simple_file_output': stopping
23:49:08.051: Output 'simple_file_output': Total frames output: 11604
23:49:08.051: Output 'simple_file_output': Total drawn frames: 11627 (11631 attempted)
23:49:08.051: Output 'simple_file_output': Number of lagged frames due to rendering lag/stalls: 4 (0,0%)
23:49:08.052: ==== Recording Stop ================================================
23:49:08.068: libfdk_aac encoder destroyed
00:00:08.300: ---------------------------------
00:00:08.300: [x264 encoder: 'simple_h264_stream'] preset: veryfast
00:00:08.300: [x264 encoder: 'simple_h264_stream'] settings:
00:00:08.300: 	rate_control: CBR
00:00:08.300: 	bitrate:      2500
00:00:08.300: 	buffer size:  2500
00:00:08.300: 	crf:          0
00:00:08.300: 	fps_num:      30
00:00:08.300: 	fps_den:      1
00:00:08.300: 	width:        1280
00:00:08.300: 	height:       720
00:00:08.300: 	keyint:       60
00:00:08.300: 
00:00:08.300: [x264 encoder: 'simple_h264_stream'] custom settings: 
00:00:08.300: 	scenecut = 0
00:00:08.304: libfdk_aac encoder created
00:00:08.304: libfdk_aac bitrate: 160, channels: 2
00:00:08.307: ==== Recording Start ===============================================
00:00:08.307: [ffmpeg muxer: 'simple_file_output'] Writing file '/home/eleven/2022-12-10 00-00-08.mp4'...
00:21:41.822: [ffmpeg muxer: 'simple_file_output'] Output of file '/home/eleven/2022-12-10 00-00-08.mp4' stopped
00:21:41.822: Output 'simple_file_output': stopping
00:21:41.822: Output 'simple_file_output': Total frames output: 38777
00:21:41.823: Output 'simple_file_output': Total drawn frames: 38799 (38805 attempted)
00:21:41.823: Output 'simple_file_output': Number of lagged frames due to rendering lag/stalls: 6 (0,0%)
00:21:41.823: ==== Recording Stop ================================================
00:21:41.835: libfdk_aac encoder destroyed
