10:01:59.943: CPU Name: Intel(R) Core(TM) i7-8550U CPU @ 1.80GHz
10:01:59.944: CPU Speed: 2000.000MHz
10:01:59.945: Physical Cores: 4, Logical Cores: 8
10:01:59.945: Physical Memory: 15876MB Total, 9368MB Free
10:01:59.945: Kernel Version: Linux 5.13.0-51-generic
10:01:59.945: Distribution: "Ubuntu" "20.10"
10:01:59.945: Session Type: x11
10:01:59.947: Window System: X11.0, Vendor: The X.Org Foundation, Version: 1.20.13
10:01:59.949: Portable mode: false
10:02:00.009: OBS 26.1.1 (linux)
10:02:00.009: ---------------------------------
10:02:00.010: ---------------------------------
10:02:00.010: audio settings reset:
10:02:00.010: 	samples per sec: 48000
10:02:00.010: 	speakers:        2
10:02:00.022: ---------------------------------
10:02:00.022: Initializing OpenGL...
10:02:00.075: Loading up OpenGL on adapter Intel Mesa Intel(R) UHD Graphics 620 (KBL GT2)
10:02:00.075: OpenGL loaded successfully, version 4.6 (Core Profile) Mesa 21.2.6, shading language 4.60
10:02:00.091: ---------------------------------
10:02:00.091: video settings reset:
10:02:00.091: 	base resolution:   1920x1080
10:02:00.091: 	output resolution: 1280x720
10:02:00.091: 	downscale filter:  Bicubic
10:02:00.091: 	fps:               30/1
10:02:00.091: 	format:            NV12
10:02:00.091: 	YUV mode:          709/Partial
10:02:00.091: NV12 texture support not available
10:02:00.094: Audio monitoring device:
10:02:00.094: 	name: Default
10:02:00.094: 	id: default
10:02:00.094: ---------------------------------
10:02:00.095: Failed to load 'en-US' text for module: 'decklink-captions.so'
10:02:00.096: Failed to load 'en-US' text for module: 'decklink-ouput-ui.so'
10:02:00.199: A DeckLink iterator could not be created.  The DeckLink drivers may not be installed
10:02:00.199: No blackmagic support
10:02:00.205: v4l2loopback not installed, virtual camera disabled
10:02:00.207: [obs-browser]: Version 2.9.1
10:02:00.207: [obs-browser]: CEF Version 76.1.13+gf19c584+chromium-76.0.3809.132
10:02:00.233: os_dlopen(libnvidia-encode.so.1->libnvidia-encode.so.1): libnvidia-encode.so.1: cannot open shared object file: No such file or directory
10:02:00.233: 
10:02:00.233: FFMPEG VAAPI supported
10:02:00.247: os_dlopen(libvlc.so.5->libvlc.so.5): libvlc.so.5: cannot open shared object file: No such file or directory
10:02:00.247: 
10:02:00.247: Couldn't find VLC installation, VLC video source disabled
10:02:00.247: ---------------------------------
10:02:00.247:   Loaded Modules:
10:02:00.247:     vlc-video.so
10:02:00.247:     text-freetype2.so
10:02:00.247:     rtmp-services.so
10:02:00.247:     obs-x264.so
10:02:00.247:     obs-vst.so
10:02:00.247:     obs-transitions.so
10:02:00.247:     obs-outputs.so
10:02:00.247:     obs-libfdk.so
10:02:00.247:     obs-filters.so
10:02:00.247:     obs-ffmpeg.so
10:02:00.247:     obs-browser.so
10:02:00.247:     linux-v4l2.so
10:02:00.247:     linux-pulseaudio.so
10:02:00.247:     linux-jack.so
10:02:00.247:     linux-decklink.so
10:02:00.247:     linux-capture.so
10:02:00.247:     linux-alsa.so
10:02:00.247:     image-source.so
10:02:00.247:     frontend-tools.so
10:02:00.247:     decklink-ouput-ui.so
10:02:00.247:     decklink-captions.so
10:02:00.247: ---------------------------------
10:02:00.247: os_dlopen(../obs-plugins/obs-browser->../obs-plugins/obs-browser.so): ../obs-plugins/obs-browser.so: cannot open shared object file: No such file or directory
10:02:00.247: 
10:02:00.247: ==== Startup complete ===============================================
10:02:00.250: All scene data cleared
10:02:00.250: ------------------------------------------------
10:02:00.255: pulse-input: Server name: 'pulseaudio 13.99.2'
10:02:00.255: pulse-input: Audio format: s16le, 44100 Hz, 2 channels
10:02:00.255: pulse-input: Started recording from 'alsa_output.pci-0000_00_1f.3.analog-stereo.monitor'
10:02:00.256: [Loaded global audio device]: 'Desktop Audio'
10:02:00.256: pulse-input: Server name: 'pulseaudio 13.99.2'
10:02:00.256: pulse-input: Audio format: s16le, 44100 Hz, 2 channels
10:02:00.256: pulse-input: Started recording from 'alsa_output.pci-0000_00_1f.3.analog-stereo.monitor'
10:02:00.256: [Loaded global audio device]: 'Desktop Audio 2'
10:02:00.256: pulse-input: Server name: 'pulseaudio 13.99.2'
10:02:00.256: pulse-input: Audio format: s16le, 44100 Hz, 2 channels
10:02:00.257: pulse-input: Started recording from 'alsa_input.pci-0000_00_1f.3.analog-stereo'
10:02:00.257: [Loaded global audio device]: 'Mic/Aux'
10:02:00.267: xcompcap: XCompositeNameWindowPixmap failed: BadMatch (invalid parameter attributes)
10:02:00.268: xshm-input: Geometry 1920x1080 @ 0,0
10:02:00.271: xcompcap: XCompositeNameWindowPixmap failed: BadMatch (invalid parameter attributes)
10:02:00.273: pulse-input: Server name: 'pulseaudio 13.99.2'
10:02:00.273: pulse-input: Audio format: s16le, 44100 Hz, 2 channels
10:02:00.273: pulse-input: Started recording from 'PulseEffects_apps.monitor'
10:02:00.274: xcompcap: XCompositeNameWindowPixmap failed: BadMatch (invalid parameter attributes)
10:02:00.275: xcompcap: XCompositeNameWindowPixmap failed: BadMatch (invalid parameter attributes)
10:02:00.276: v4l2-input: Start capture from /dev/video1
10:02:00.276: v4l2-input: Unable to set input 0
10:02:00.276: v4l2-input: Initialization failed
10:02:00.276: v4l2-input: Start capture from /dev/video0
10:02:00.277: v4l2-input: Unable to set input 0
10:02:00.277: v4l2-input: Initialization failed
10:02:00.277: Switched to scene 'stream opsource + a movie'
10:02:00.277: ------------------------------------------------
10:02:00.277: Loaded scenes:
10:02:00.277: - scene 'Scene':
10:02:00.277:     - source: 'vim screen' (xcomposite_input)
10:02:00.277:     - source: 'Audio Output Capture (PulseAudio)' (pulse_output_capture)
10:02:00.277:     - filter: 'Image Mask/Blend' (mask_filter)
10:02:00.277:     - filter: 'Chroma Key' (chroma_key_filter)
10:02:00.277: - scene 'stream opsource + a movie':
10:02:00.278:     - source: 'Audio Output Capture (PulseAudio)' (pulse_output_capture)
10:02:00.278:     - source: 'code' (xcomposite_input)
10:02:00.278:         - filter: 'Chroma Key' (chroma_key_filter)
10:02:00.278:     - source: 'Screen Capture (XSHM)' (xshm_input)
10:02:00.278:     - source: 'Video Capture Device (V4L2)' (v4l2_input)
10:02:00.278:         - filter: 'Color Correction' (color_filter)
10:02:00.278:     - source: 'movie' (xcomposite_input)
10:02:00.278:     - source: 'reader' (xcomposite_input)
10:02:00.278:     - source: 'Video Capture Device (V4L2) 2' (v4l2_input)
10:02:00.278: - scene 'cam':
10:02:00.278: ------------------------------------------------
10:02:00.812: adding 21 milliseconds of audio buffering, total audio buffering is now 21 milliseconds (source: Audio Output Capture (PulseAudio))
10:02:00.812: 
10:02:02.140: ---------------------------------
10:02:02.140: [x264 encoder: 'simple_h264_stream'] preset: veryfast
10:02:02.140: [x264 encoder: 'simple_h264_stream'] settings:
10:02:02.140: 	rate_control: CBR
10:02:02.140: 	bitrate:      2500
10:02:02.140: 	buffer size:  2500
10:02:02.140: 	crf:          0
10:02:02.140: 	fps_num:      30
10:02:02.140: 	fps_den:      1
10:02:02.140: 	width:        1280
10:02:02.140: 	height:       720
10:02:02.140: 	keyint:       60
10:02:02.140: 
10:02:02.140: [x264 encoder: 'simple_h264_stream'] custom settings: 
10:02:02.140: 	scenecut = 0
10:02:02.146: libfdk_aac encoder created
10:02:02.146: libfdk_aac bitrate: 160, channels: 2
10:02:02.162: ==== Recording Start ===============================================
10:02:02.162: [ffmpeg muxer: 'simple_file_output'] Writing file '/home/eleven/2022-12-07 10-02-02.mp4'...
10:31:06.759: [ffmpeg muxer: 'simple_file_output'] Output of file '/home/eleven/2022-12-07 10-02-02.mp4' stopped
10:31:06.759: Output 'simple_file_output': stopping
10:31:06.759: Output 'simple_file_output': Total frames output: 52310
10:31:06.759: Output 'simple_file_output': Total drawn frames: 52336 (52337 attempted)
10:31:06.759: Output 'simple_file_output': Number of lagged frames due to rendering lag/stalls: 1 (0,0%)
10:31:06.759: ==== Recording Stop ================================================
10:31:06.767: libfdk_aac encoder destroyed
14:04:13.462: adding 21 milliseconds of audio buffering, total audio buffering is now 42 milliseconds (source: Desktop Audio)
14:04:13.462: 
