=== Suite started at 2020-05-31 11:38:23
=== Starting test, 1 test cases
=cases         1
=user          eleven
=host          eleven
=hosts         eleven 
=emulator_vsn  10.6.4
=emulator      beam
=otp_release   22
=started       2020-05-31 11:38:24
=case          ct_framework:init_per_suite
=logfile       ct_framework.init_per_suite.html
=group_props   [{suite,tests_SUITE}]
=started       2020-05-31 11:38:24
=ended         2020-05-31 11:38:24
=result        ok
=elapsed       0.0
=case          tests_SUITE:index_file
=logfile       tests_suite.index_file.html
=started       2020-05-31 11:38:24
=ended         2020-05-31 11:38:24
=result        failed: {{badmatch,{error,enoent}},
                        [{index,get_file_contents,1,
                                [{file,"index.erl"},{line,8}]},
                         {tests_SUITE,index_file,1,
                                      [{file,"tests_SUITE.erl"},{line,9}]},
                         {test_server,ts_tc,3,
                                      [{file,"test_server.erl"},{line,1754}]},
                         {test_server,run_test_case_eval1,6,
                                      [{file,"test_server.erl"},{line,1263}]},
                         {test_server,run_test_case_eval,9,
                                      [{file,"test_server.erl"},
                                       {line,1195}]}]}, [{index,
                                                          get_file_contents,8},
                                                         {tests_SUITE,
                                                          index_file,9},
                                                         {test_server,ts_tc,
                                                          1754},
                                                         {test_server,
                                                          run_test_case_eval1,
                                                          1263},
                                                         {test_server,
                                                          run_test_case_eval,
                                                          1195}]
=== *** FAILED test case 1 of 1 ***
=case          ct_framework:end_per_suite
=logfile       ct_framework.end_per_suite.html
=group_props   [{suite,tests_SUITE}]
=started       2020-05-31 11:38:24
=ended         2020-05-31 11:38:24
=result        ok
=elapsed       1.0e-6
=group_time    0.074s
=== TEST COMPLETE, 0 ok, 1 failed of 1 test cases

=finished      2020-05-31 11:38:24
=failed        1
=successful    0
=user_skipped  0
=auto_skipped  0
